# palmerpenguins Analysis
Reuben Njue

``` r
pacman::p_load(conflicted, tidyverse, ggbeeswarm, palmerpenguins, wrappedtools)
conflict_scout()
conflict_prefer("penguins", "palmerpenguins") 
conflict_prefer("filter", "dplyr")
penguins
```

    # A tibble: 344 × 8
       species island    bill_length_mm bill_depth_mm flipper_length_mm body_mass_g
       <fct>   <fct>              <dbl>         <dbl>             <int>       <int>
     1 Adelie  Torgersen           39.1          18.7               181        3750
     2 Adelie  Torgersen           39.5          17.4               186        3800
     3 Adelie  Torgersen           40.3          18                 195        3250
     4 Adelie  Torgersen           NA            NA                  NA          NA
     5 Adelie  Torgersen           36.7          19.3               193        3450
     6 Adelie  Torgersen           39.3          20.6               190        3650
     7 Adelie  Torgersen           38.9          17.8               181        3625
     8 Adelie  Torgersen           39.2          19.6               195        4675
     9 Adelie  Torgersen           34.1          18.1               193        3475
    10 Adelie  Torgersen           42            20.2               190        4250
    # ℹ 334 more rows
    # ℹ 2 more variables: sex <fct>, year <int>
…
# 4. all measures within species and sex, plot and test

``` r
# Statistical Test: All Measures by Species and Sex
normality_results <- penguins |>
  filter(!is.na(sex)) |>
  pivot_longer(cols = where(is.numeric), names_to = "measure", values_to = "value") |>
  filter(!is.na(value)) |>
  group_by(species, sex, measure) |>
  summarise(p_val = round(shapiro.test(value)$p.value, 4), .groups = "drop")

print(normality_results)
```

    # A tibble: 30 × 4
       species sex    measure            p_val
       <fct>   <fct>  <chr>              <dbl>
     1 Adelie  female bill_depth_mm     0.436 
     2 Adelie  female bill_length_mm    0.895 
     3 Adelie  female body_mass_g       0.198 
     4 Adelie  female flipper_length_mm 0.491 
     5 Adelie  female year              0     
     6 Adelie  male   bill_depth_mm     0.0335
     7 Adelie  male   bill_length_mm    0.607 
     8 Adelie  male   body_mass_g       0.416 
     9 Adelie  male   flipper_length_mm 0.498 
    10 Adelie  male   year              0     
    # ℹ 20 more rows
…
