…
``` r
knitr::knit_print(loopresults)
```

    # A tibble: 40 × 5
       Variable       Species   Sex      pKS        pShapiro  
       <chr>          <chr>     <chr>    <chr>      <chr>     
     1 bill_length_mm combined  combined 0.001 ***  0.001 *** 
     2 bill_length_mm Adelie    combined 0.796 n.s. 0.685 n.s.
     3 bill_length_mm Adelie    female   0.414 n.s. 0.895 n.s.
     4 bill_length_mm Adelie    male     0.484 n.s. 0.607 n.s.
     5 bill_length_mm Chinstrap combined 0.146 n.s. 0.194 n.s.
     6 bill_length_mm Chinstrap female   0.006 **   0.002 **  
     7 bill_length_mm Chinstrap male     0.449 n.s. 0.177 n.s.
     8 bill_length_mm Gentoo    combined 0.371 n.s. 0.020 *   
     9 bill_length_mm Gentoo    female   0.411 n.s. 0.895 n.s.
    10 bill_length_mm Gentoo    male     0.039 *    0.005 **  
    # ℹ 30 more rows
…
